{
  "products": [
    {
      "productName": "สลัดผัก",
      "unitPrice": "120",
      "thumbnail": "/images/product/1.jpg",
      "id": 1
    },
    {
      "productName": "ไก่ทอด",
      "unitPrice": "90",
      "thumbnail": "/images/product/2.jpg",
      "id": 2
    },
    {
      "thumbnail": "/images/product/3.jpg",
      "productName": "บิงซู",
      "unitPrice": "300",
      "id": 3
    },
    {
      "thumbnail": "/images/product/4.jpg",
      "productName": "เฟรนฟราย",
      "unitPrice": "140",
      "id": 4
    },
    {
      "thumbnail": "/images/product/5.jpg",
      "unitPrice": "200",
      "productName": "เค้ก 3 ชั้น",
      "id": 5
    },
    {
      "thumbnail": "/images/product/6.jpg",
      "unitPrice": "140",
      "productName": "กาแฟ เฮลตี้ฟู้ด",
      "id": 6
    },
    {
      "productName": "ซุปข้าวโพด",
      "unitPrice": "150",
      "thumbnail": "/images/product/4.jpg",
      "id": 7
    },
    {
      "productName": "ซุปข้าวโพด",
      "unitPrice": "900",
      "thumbnail": "/images/product/11.jpg",
      "id": 8
    }
  ],
  "orders": [
    {
      "orderDate": "2020-04-13T09:19:25.090Z",
      "totalPrice": 210,
      "orders": [
        {
          "product": {
            "productName": "สลัดผัก",
            "unitPrice": "120",
            "thumbnail": "/images/product/1.jpg",
            "id": 1
          },
          "quantity": 1
        },
        {
          "product": {
            "productName": "ไก่ทอด",
            "unitPrice": "90",
            "thumbnail": "/images/product/2.jpg",
            "id": 2
          },
          "quantity": 1
        }
      ],
      "id": 1
    },
    {
      "orderDate": "2020-04-13T09:19:41.495Z",
      "totalPrice": 510,
      "orders": [
        {
          "product": {
            "productName": "ไก่ทอด",
            "unitPrice": "90",
            "thumbnail": "/images/product/2.jpg",
            "id": 2
          },
          "quantity": 1
        },
        {
          "product": {
            "productName": "สลัดผัก",
            "unitPrice": "120",
            "thumbnail": "/images/product/1.jpg",
            "id": 1
          },
          "quantity": 1
        },
        {
          "product": {
            "thumbnail": "/images/product/3.jpg",
            "productName": "บิงซู",
            "unitPrice": "300",
            "id": 3
          },
          "quantity": 1
        }
      ],
      "id": 2
    },
    {
      "orderDate": "2020-04-13T09:23:22.030Z",
      "totalPrice": 230,
      "orders": [
        {
          "product": {
            "productName": "ไก่ทอด",
            "unitPrice": "90",
            "thumbnail": "/images/product/2.jpg",
            "id": 2
          },
          "quantity": 1
        },
        {
          "product": {
            "thumbnail": "/images/product/4.jpg",
            "productName": "เฟรนฟราย",
            "unitPrice": "140",
            "id": 4
          },
          "quantity": 1
        }
      ],
      "id": 3
    }
  ]
}